<?xml version="1.0" encoding="UTF-8" standalone="no"?>
<svg
   xmlns:dc="http://purl.org/dc/elements/1.1/"
   xmlns:cc="http://creativecommons.org/ns#"
   xmlns:rdf="http://www.w3.org/1999/02/22-rdf-syntax-ns#"
   xmlns:svg="http://www.w3.org/2000/svg"
   xmlns="http://www.w3.org/2000/svg"
   xmlns:sodipodi="http://sodipodi.sourceforge.net/DTD/sodipodi-0.dtd"
   xmlns:inkscape="http://www.inkscape.org/namespaces/inkscape"
   width="24"
   height="24"
   viewBox="0 0 24 24"
   fill="none"
   stroke="#ff802b"
   stroke-width="2"
   stroke-linecap="round"
   stroke-linejoin="round"
   class="feather feather-mail"
   version="1.1"
   id="svg6"
   sodipodi:docname="mail.svg"
   inkscape:version="0.92.3 (2405546, 2018-03-11)">
  <metadata
     id="metadata12">
    <rdf:RDF>
      <cc:Work
         rdf:about="">
        <dc:format>image/svg+xml</dc:format>
        <dc:type
           rdf:resource="http://purl.org/dc/dcmitype/StillImage" />
      </cc:Work>
    </rdf:RDF>
  </metadata>
  <defs
     id="defs10" />
  <sodipodi:namedview
     pagecolor="#ffffff"
     bordercolor="#666666"
     borderopacity="1"
     objecttolerance="10"
     gridtolerance="10"
     guidetolerance="10"
     inkscape:pageopacity="0"
     inkscape:pageshadow="2"
     inkscape:window-width="1920"
     inkscape:window-height="1015"
     id="namedview8"
     showgrid="false"
     inkscape:zoom="256"
     inkscape:cx="18.770601"
     inkscape:cy="21.560482"
     inkscape:window-x="0"
     inkscape:window-y="0"
     inkscape:window-maximized="1"
     inkscape:current-layer="svg6" />
  <path
     d="M4 4h16c1.1 0 2 .9 2 2v12c0 1.1-.9 2-2 2H4c-1.1 0-2-.9-2-2V6c0-1.1.9-2 2-2z"
     id="path2" />
  <polyline
     points="22,6 12,13 2,6"
     id="polyline4" />
  <path
     style="opacity:1;vector-effect:none;fill:#ff802b;fill-opacity:1;stroke-width:0.00317797;stroke-linecap:butt;stroke-linejoin:miter;stroke-miterlimit:4;stroke-dasharray:none;stroke-dashoffset:0;stroke-opacity:1"
     d="M 3.4816273,20.93268 C 2.8787915,20.83222 2.2174871,20.460321 1.7863734,19.979316 1.468646,19.624818 1.1537905,18.987066 1.0799229,18.548371 1.0411037,18.317826 1.0287118,16.280106 1.0389518,11.811083 L 1.0536319,5.4043034 1.1672883,5.0701273 C 1.4556261,4.2223472 2.1598729,3.5112758 3.0401325,3.179134 l 0.301635,-0.1138137 8.5382935,-0.01344 c 9.426233,-0.014838 8.784836,-0.035597 9.483457,0.3069333 0.403974,0.1980665 0.983481,0.751137 1.210899,1.1556594 0.08647,0.1538136 0.210603,0.4398306 0.275846,0.6355933 l 0.118623,0.3559322 v 6.4830505 c 0,6.149073 -0.0048,6.498656 -0.09347,6.785964 -0.269234,0.872547 -0.814148,1.522362 -1.585957,1.891271 -0.707702,0.338267 -0.214628,0.321522 -9.303626,0.315938 -4.5305082,-0.0028 -8.3574018,-0.02508 -8.5042077,-0.04954 z M 20.441251,18.909252 c 0.238525,-0.122323 0.391147,-0.285472 0.49131,-0.525196 0.06927,-0.165787 0.0787,-0.803774 0.0787,-5.325577 0,-2.825475 -0.01142,-5.1372265 -0.02537,-5.1372265 -0.01395,0 -1.941708,1.3412787 -4.283899,2.9806185 -2.34219,1.63934 -4.3115,3.000781 -4.376245,3.025424 -0.191244,0.07279 -0.534289,0.05141 -0.723226,-0.04508 -0.0968,-0.04944 -2.0484786,-1.400892 -4.3370566,-3.003235 -2.288578,-1.6023427 -4.193977,-2.9259857 -4.2342199,-2.9414284 -0.063421,-0.024337 -0.07132,0.6619791 -0.059288,5.1515404 0.0132,4.925498 0.018488,5.188067 0.1077825,5.351858 0.116638,0.213945 0.3163988,0.404881 0.516268,0.493461 0.1248013,0.05531 1.653242,0.06797 8.404568,0.0696 8.013439,0.0019 8.25748,-8.08e-4 8.440678,-0.09476 z M 16.378292,8.7379669 C 18.77261,7.0617363 20.775488,5.6577473 20.82913,5.6179914 20.92457,5.5472604 20.92413,5.5421534 20.80877,5.3801378 20.74393,5.2890748 20.57419,5.160236 20.431578,5.0938305 L 20.172276,4.9730934 12.036683,4.9728799 C 6.2563926,4.9727288 3.8425389,4.9889219 3.6988461,5.0288149 3.4793116,5.0897629 3.0900928,5.4374154 3.1248051,5.5415521 3.1436761,5.5981671 11.9384,11.78566 11.999999,11.78566 c 0.01374,0 1.983974,-1.371462 4.378293,-3.0476931 z"
     id="path822"
     inkscape:connector-curvature="0" />
  <path
     style="opacity:1;vector-effect:none;fill:#ff802b;fill-opacity:1;stroke-width:0.00317797;stroke-linecap:butt;stroke-linejoin:miter;stroke-miterlimit:4;stroke-dasharray:none;stroke-dashoffset:0;stroke-opacity:1"
     d="M 3.3671913,20.910052 C 2.5177858,20.727808 1.7217241,20.097274 1.3419863,19.305956 1.2292663,19.071064 1.1114267,18.741591 1.0801204,18.573795 1.0394996,18.356074 1.0275571,16.419507 1.0384159,11.811083 L 1.0536319,5.3534559 1.1722393,5.0370433 C 1.486546,4.198558 2.1495864,3.5268151 3.0038444,3.1813985 L 3.2909201,3.0653203 11.807869,3.0502175 c 6.120368,-0.010853 8.602797,8.938e-4 8.822034,0.041746 0.793785,0.1479117 1.651455,0.8151246 2.026103,1.5761791 0.356771,0.7247395 0.342978,0.4083544 0.326519,7.4901204 -0.01398,6.015831 -0.01991,6.380013 -0.108098,6.644345 -0.368922,1.105763 -1.215799,1.884322 -2.295371,2.110203 C 20.06014,21.021385 3.8739992,21.01879 3.3671913,20.910052 Z M 20.518919,18.859905 c 0.106756,-0.06637 0.255484,-0.213416 0.330509,-0.326772 l 0.136407,-0.206103 0.01388,-5.209499 0.01388,-5.2095001 -0.140994,0.092329 c -0.07755,0.050781 -1.971503,1.3725191 -4.208792,2.9371961 -2.237288,1.564676 -4.154467,2.890305 -4.260398,2.945842 -0.146265,0.07668 -0.259052,0.09547 -0.468802,0.07807 -0.337475,-0.02799 0.02308,0.210382 -5.0080877,-3.310915 L 3.0366828,7.928075 2.9936378,8.0899181 c -0.023675,0.089014 -0.034048,2.4042159 -0.023051,5.1448939 0.017627,4.392893 0.029468,5.004493 0.099988,5.164103 0.1038667,0.235086 0.4681567,0.545073 0.6711632,0.571116 0.087643,0.01124 3.8546901,0.01822 8.371216,0.01549 l 8.211864,-0.0049 0.194101,-0.12067 z M 16.462284,8.6745337 20.908902,5.5634086 20.824098,5.4339815 C 20.704549,5.251526 20.56009,5.1399595 20.324818,5.0483834 20.143179,4.9776829 19.245974,4.9707304 11.934988,4.9833703 4.0568183,4.9969907 3.7413447,5.0011032 3.5572782,5.0925808 3.379519,5.1809239 3.112954,5.4406078 3.112954,5.5254353 c 0,0.020382 0.3713849,0.2989231 0.8252999,0.6189801 2.0397102,1.4382069 8.0451981,5.6412436 8.0604631,5.6412436 0.0093,0 2.017927,-1.400006 4.463567,-3.1111253 z"
     id="path824"
     inkscape:connector-curvature="0" />
  <path
     style="opacity:1;vector-effect:none;fill:#ff802b;fill-opacity:1;stroke-width:0.00024414;stroke-linecap:butt;stroke-linejoin:miter;stroke-miterlimit:4;stroke-dasharray:none;stroke-dashoffset:0;stroke-opacity:1"
     d="M 6.6170187,3.0311186 V 3.003133 h 4.5644533 4.564453 v 0.021484 0.021484 l -1.014649,3.87e-5 c -0.558056,2.11e-5 -1.231738,8.845e-4 -1.49707,0.00192 -0.265332,0.00103 -1.14248,0.00277 -1.949219,0.00387 -0.806738,0.00109 -2.1870601,0.00316 -3.0673824,0.00458 l -1.6005859,0.0026 z"
     id="path815"
     inkscape:connector-curvature="0" />
  <path
     style="opacity:1;vector-effect:none;fill:#ff802b;fill-opacity:1;stroke-width:0.00024414;stroke-linecap:butt;stroke-linejoin:miter;stroke-miterlimit:4;stroke-dasharray:none;stroke-dashoffset:0;stroke-opacity:1"
     d="m 6.6170187,3.031053 v -0.02792 h 4.5644533 4.564453 v 0.021484 0.021484 l -1.594727,1.005e-4 c -0.877099,5.53e-5 -1.624609,8.605e-4 -1.661132,0.00179 -0.03652,9.289e-4 -1.018262,0.00264 -2.181641,0.00381 -1.163379,0.00117 -2.4698731,0.00326 -2.9033204,0.00465 l -0.7880859,0.00252 z"
     id="path817"
     inkscape:connector-curvature="0" />
  <path
     style="opacity:1;vector-effect:none;fill:#ff802b;fill-opacity:1;stroke-width:0.00024414;stroke-linecap:butt;stroke-linejoin:miter;stroke-miterlimit:4;stroke-dasharray:none;stroke-dashoffset:0;stroke-opacity:1"
     d="M 6.5995013,4.0282092 V 3.063319 L 7.8465716,3.060689 C 10.893314,3.054259 13.225473,3.050709 14.428603,3.050674 l 1.299805,-4.16e-5 v 0.9622559 0.962256 l -2.09668,0.00269 c -2.455465,0.00315 -5.301917,0.00883 -6.3164064,0.012603 l -0.7158203,0.00266 z"
     id="path821"
     inkscape:connector-curvature="0" />
  <path
     style="opacity:1;vector-effect:none;fill:#ff802b;fill-opacity:1;stroke-width:0.00024414;stroke-linecap:butt;stroke-linejoin:miter;stroke-miterlimit:4;stroke-dasharray:none;stroke-dashoffset:0;stroke-opacity:1"
     d="m 11.440322,3.0516116 c 0.04888,-6.198e-4 0.128857,-6.198e-4 0.177734,0 0.04888,6.199e-4 0.0089,0.00113 -0.08887,0.00113 -0.09775,0 -0.137744,-5.071e-4 -0.08887,-0.00113 z"
     id="path823"
     inkscape:connector-curvature="0" />
  <path
     style="opacity:1;vector-effect:none;fill:#ff802b;fill-opacity:1;stroke-width:0.00024414;stroke-linecap:butt;stroke-linejoin:miter;stroke-miterlimit:4;stroke-dasharray:none;stroke-dashoffset:0;stroke-opacity:1"
     d="m 20.112277,3.0016544 c 0.0038,-9.904e-4 0.0091,-9.252e-4 0.01172,1.448e-4 0.0026,0.00107 -4.65e-4,0.00188 -0.0069,0.0018 -0.0064,-7.96e-5 -0.0086,-9.551e-4 -0.0048,-0.00195 z"
     id="path825"
     inkscape:connector-curvature="0" />
  <path
     style="opacity:1;vector-effect:none;fill:#ff802b;fill-opacity:1;stroke-width:0.00024414;stroke-linecap:butt;stroke-linejoin:miter;stroke-miterlimit:4;stroke-dasharray:none;stroke-dashoffset:0;stroke-opacity:1"
     d=""
     id="path827"
     inkscape:connector-curvature="0" />
</svg>
